# generated from:
# sha256sum ./BlanccoLUNEraser ./license.dat > ble-sha256sums.txt
7c9797d84748dbc6847b561c51443d834620c74b4d174e204049c26e3eb5bab5  BlanccoLUNEraser
0e625750af42a7f10cc4e373db7e8377d4bd723c730460b68cd36c8ca013533d  license.dat
